{
  "id": "",
  "name": "",
  "font_family": "iconfont",
  "css_prefix_text": "icon-",
  "description": "",
  "glyphs": [
    {
      "icon_id": "2183058",
      "name": "阿迪达斯",
      "font_class": "adidas",
      "unicode": "e618",
      "unicode_decimal": 58904
    },
    {
      "icon_id": "8326823",
      "name": "Location",
      "font_class": "Location",
      "unicode": "e651",
      "unicode_decimal": 58961
    }
  ]
}
